{"todo":
{
	"Процедуры":[
		{
			"Должник":{
		"Наименование":"Михайлова Александра Борисовича","ИНН":"183473058670"},
		"тип":{
			"Кратко":"РИ",
			"Полностью":"Реализация имущества"},
		"Дата_начала":"\/Date(1449777600000)\/",
		"Дата_окончания":"\/Date(1464033600000)\/",
		"типПроцедуры":3,
		"ID":"1"
	},
	{
	"Должник":{
		"Наименование":"ООО \"РОГА И КОПЫТА\"",
		"ИНН":"0000000000"},
		"тип":{
			"Кратко":"Н",
			"Полностью":"Наблюдение"},
		"Дата_начала":"\/Date(1422907200000)\/",
		"Дата_окончания":"\/Date(1438545600000)\/",
		"типПроцедуры":0,
		"ID":"2"
	}]
	,"Задачи":[
		{
	"Формулировка":"Зарегистрировать публикацию сообщения о введении Реализации имущества",
	"процедура":{
		"Должник":{
			"Наименование":"Михайлова Александра Борисовича","ИНН":"183473058670"},
			"тип":{
				"Кратко":"РИ",
				"Полностью":"Реализации имущества"},
			"Дата_начала":"\/Date(1449777600000)\/",
			"Дата_окончания":"\/Date(1464033600000)\/",
			"типПроцедуры":3,
			"ID":"1"},
		"ЗадачаID":"1",
		"ПроцедураID":"1",
		"К_сроку":"\/Date(1423512000000)\/",
		"Статус":0,
		"ДатаРешения":"\/Date(-62135596800000)\/",
		"Тип":{
			"Основной":"Публикация_в_коммерсанте",
			"Второстепенный":"Зарегистрировать"
		}},
	{
	"Формулировка":"Разместить на ЕФРСБ \"Сообщение о введении Реализации имущества\"",
	"процедура":{
		"Должник":{
			"Наименование":"ООО \"РОГА И КОПЫТА\"","ИНН":"183473058670"},
			"тип":{
				"Кратко":"РИ",
				"Полностью":"Реализации имущества"
			},
		"Дата_начала":"\/Date(1449777600000)\/",
		"Дата_окончания":"\/Date(1464033600000)\/",
		"типПроцедуры":3,
		"ID":"2"
		},
		"ЗадачаID":"2",
		"ПроцедураID":"2",
		"К_сроку":"\/Date(1450209600000)\/",
		"Статус":0,"ДатаРешения":"\/Date(-62135596800000)\/",
		"Тип":{
			"Основной":"Опубликовать_на_ЕФРСБ_объявление",
			"Второстепенный":"О_введении_процедуры"
		}
	}]

}
}