{
	"Email": "1",
	"Имя": "2",
	"Давать_доступ_ко_всем_процедурам_по_умолчанию": "false",
	"Доступ_к_процедурам": [
		{
			"id": "2",
			"text": "ООО \"КАРИНА\""
		},
		{
			"id": "3",
			"text": "ООО \"Василёк\""
		}
	],
	"id_Manager": "0"
}